Gate_Verilog/UART/dump.vcd
$date
	Fri Dec 05 00:24:43 2025
$end
$version
	Icarus Verilog
$end
$timescale
	1s
$end
$scope module uart_tb $end
$var wire 1 ! tx_done $end
$var wire 1 " tx $end
$var wire 1 # rx_done $end
$var wire 1 $ parity_err $end
$var wire 8 % data_out [7:0] $end
$var reg 1 & clk $end
$var reg 8 ' data_in [7:0] $end
$var reg 1 ( rst $end
$var reg 1 ) tx_start $end
$scope module top_uut $end
$var wire 1 & clk $end
$var wire 8 * data_in [7:0] $end
$var wire 1 ( rst $end
$var wire 1 " tx $end
$var wire 1 ) tx_start $end
$var wire 1 + uart_int $end
$var wire 1 ! tx_done $end
$var wire 1 # rx_done $end
$var wire 1 $ parity_err $end
$var wire 8 , data_out [7:0] $end
$scope module rx_inst $end
$var wire 1 & clk $end
$var wire 1 ( rst $end
$var wire 1 + rx $end
$var parameter 32 - baudrate $end
$var parameter 32 . bits_per_clk $end
$var parameter 32 / clk_freq $end
$var parameter 3 0 data_bit $end
$var parameter 3 1 done $end
$var parameter 3 2 idle $end
$var parameter 32 3 mid_sample $end
$var parameter 3 4 parity_bit $end
$var parameter 3 5 start $end
$var parameter 3 6 stop1 $end
$var parameter 3 7 stop2 $end
$var reg 4 8 bit_index [3:0] $end
$var reg 8 9 clk_count [7:0] $end
$var reg 8 : data [7:0] $end
$var reg 8 ; data_out [7:0] $end
$var reg 1 < parity $end
$var reg 1 $ parity_err $end
$var reg 1 # rx_done $end
$var reg 3 = state [2:0] $end
$upscope $end
$scope module tx_inst $end
$var wire 1 & clk $end
$var wire 8 > data_in [7:0] $end
$var wire 1 ( rst $end
$var wire 1 ) tx_start $end
$var parameter 32 ? baudrate $end
$var parameter 32 @ bits_per_clk $end
$var parameter 32 A clk_freq $end
$var parameter 3 B data_bit $end
$var parameter 3 C done $end
$var parameter 3 D idle $end
$var parameter 3 E parity_bit $end
$var parameter 3 F start $end
$var parameter 3 G stop1 $end
$var parameter 3 H stop2 $end
$var reg 4 I bit_index [3:0] $end
$var reg 8 J clk_count [7:0] $end
$var reg 8 K data [7:0] $end
$var reg 1 L parity $end
$var reg 3 M state [2:0] $end
$var reg 1 + tx $end
$var reg 1 ! tx_done $end
$upscope $end
$upscope $end
$upscope $end
$enddefinitions $end
$comment Show the parameter values. $end
$dumpall
b101 H
b100 G
b1 F
b11 E
b0 D
b110 C
b10 B
b11110100001001000000 A
b1101000 @
b10010110000000 ?
b101 7
b100 6
b1 5
b11 4
b110100 3
b0 2
b110 1
b10 0
b11110100001001000000 /
b1101000 .
b10010110000000 -
$end
#0
$dumpvars
b0 M
0L
b0 K
b0 J
b0 I
bx >
b0 =
x<
bx ;
b0 :
b0 9
b0 8
bx ,
1+
bx *
x)
0(
bx '
0&
bx %
0$
0#
1"
0!
$end
#5
1&
#10
0&
1)
b10101100 '
b10101100 *
b10101100 >
1(
#15
b1 M
b10101100 K
b0 %
b0 ,
b0 ;
1&
#20
0&
0)
#25
b1 J
0"
0+
1&
#30
0&
#35
b10 J
b1 =
1&
#40
0&
#45
b1 9
b11 J
1&
#50
0&
#55
b100 J
b10 9
1&
#60
0&
#65
b11 9
b101 J
1&
#70
0&
#75
b110 J
b100 9
1&
#80
0&
#85
b101 9
b111 J
1&
#90
0&
#95
b1000 J
b110 9
1&
#100
0&
#105
b111 9
b1001 J
1&
#110
0&
#115
b1010 J
b1000 9
1&
#120
0&
#125
b1001 9
b1011 J
1&
#130
0&
#135
b1100 J
b1010 9
1&
#140
0&
#145
b1011 9
b1101 J
1&
#150
0&
#155
b1110 J
b1100 9
1&
#160
0&
#165
b1101 9
b1111 J
1&
#170
0&
#175
b10000 J
b1110 9
1&
#180
0&
#185
b1111 9
b10001 J
1&
#190
0&
#195
b10010 J
b10000 9
1&
#200
0&
#205
b10001 9
b10011 J
1&
#210
0&
#215
b10100 J
b10010 9
1&
#220
0&
#225
b10011 9
b10101 J
1&
#230
0&
#235
b10110 J
b10100 9
1&
#240
0&
#245
b10101 9
b10111 J
1&
#250
0&
#255
b11000 J
b10110 9
1&
#260
0&
#265
b10111 9
b11001 J
1&
#270
0&
#275
b11010 J
b11000 9
1&
#280
0&
#285
b11001 9
b11011 J
1&
#290
0&
#295
b11100 J
b11010 9
1&
#300
0&
#305
b11011 9
b11101 J
1&
#310
0&
#315
b11110 J
b11100 9
1&
#320
0&
#325
b11101 9
b11111 J
1&
#330
0&
#335
b100000 J
b11110 9
1&
#340
0&
#345
b11111 9
b100001 J
1&
#350
0&
#355
b100010 J
b100000 9
1&
#360
0&
#365
b100001 9
b100011 J
1&
#370
0&
#375
b100100 J
b100010 9
1&
#380
0&
#385
b100011 9
b100101 J
1&
#390
0&
#395
b100110 J
b100100 9
1&
#400
0&
#405
b100101 9
b100111 J
1&
#410
0&
#415
b101000 J
b100110 9
1&
#420
0&
#425
b100111 9
b101001 J
1&
#430
0&
#435
b101010 J
b101000 9
1&
#440
0&
#445
b101001 9
b101011 J
1&
#450
0&
#455
b101100 J
b101010 9
1&
#460
0&
#465
b101011 9
b101101 J
1&
#470
0&
#475
b101110 J
b101100 9
1&
#480
0&
#485
b101101 9
b101111 J
1&
#490
0&
#495
b110000 J
b101110 9
1&
#500
0&
#505
b101111 9
b110001 J
1&
#510
0&
#515
b110010 J
b110000 9
1&
#520
0&
#525
b110001 9
b110011 J
1&
#530
0&
#535
b110100 J
b110010 9
1&
#540
0&
#545
b110011 9
b110101 J
1&
#550
0&
#555
b110110 J
b110100 9
1&
#560
0&
#565
b10 =
b0 9
b110111 J
1&
#570
0&
#575
b111000 J
b1 9
1&
#580
0&
#585
b10 9
b111001 J
1&
#590
0&
#595
b111010 J
b11 9
1&
#600
0&
#605
b100 9
b111011 J
1&
#610
0&
#615
b111100 J
b101 9
1&
#620
0&
#625
b110 9
b111101 J
1&
#630
0&
#635
b111110 J
b111 9
1&
#640
0&
#645
b1000 9
b111111 J
1&
#650
0&
#655
b1000000 J
b1001 9
1&
#660
0&
#665
b1010 9
b1000001 J
1&
#670
0&
#675
b1000010 J
b1011 9
1&
#680
0&
#685
b1100 9
b1000011 J
1&
#690
0&
#695
b1000100 J
b1101 9
1&
#700
0&
#705
b1110 9
b1000101 J
1&
#710
0&
#715
b1000110 J
b1111 9
1&
#720
0&
#725
b10000 9
b1000111 J
1&
#730
0&
#735
b1001000 J
b10001 9
1&
#740
0&
#745
b10010 9
b1001001 J
1&
#750
0&
#755
b1001010 J
b10011 9
1&
#760
0&
#765
b10100 9
b1001011 J
1&
#770
0&
#775
b1001100 J
b10101 9
1&
#780
0&
#785
b10110 9
b1001101 J
1&
#790
0&
#795
b1001110 J
b10111 9
1&
#800
0&
#805
b11000 9
b1001111 J
1&
#810
0&
#815
b1010000 J
b11001 9
1&
#820
0&
#825
b11010 9
b1010001 J
1&
#830
0&
#835
b1010010 J
b11011 9
1&
#840
0&
#845
b11100 9
b1010011 J
1&
#850
0&
#855
b1010100 J
b11101 9
1&
#860
0&
#865
b11110 9
b1010101 J
1&
#870
0&
#875
b1010110 J
b11111 9
1&
#880
0&
#885
b100000 9
b1010111 J
1&
#890
0&
#895
b1011000 J
b100001 9
1&
#900
0&
#905
b100010 9
b1011001 J
1&
#910
0&
#915
b1011010 J
b100011 9
1&
#920
0&
#925
b100100 9
b1011011 J
1&
#930
0&
#935
b1011100 J
b100101 9
1&
#940
0&
#945
b100110 9
b1011101 J
1&
#950
0&
#955
b1011110 J
b100111 9
1&
#960
0&
#965
b101000 9
b1011111 J
1&
#970
0&
#975
b1100000 J
b101001 9
1&
#980
0&
#985
b101010 9
b1100001 J
1&
#990
0&
#995
b1100010 J
b101011 9
1&
#1000
0&
#1005
b101100 9
b1100011 J
1&
#1010
0&
#1015
b1100100 J
b101101 9
1&
#1020
0&
#1025
b101110 9
b1100101 J
1&
#1030
0&
#1035
b1100110 J
b101111 9
1&
#1040
0&
#1045
b110000 9
b1100111 J
1&
#1050
0&
#1055
b10 M
b0 J
b110001 9
1&
#1060
0&
#1065
b110010 9
b1 J
1&
#1070
0&
#1075
b10 J
b110011 9
1&
#1080
0&
#1085
b110100 9
b11 J
1&
#1090
0&
#1095
b100 J
b110101 9
1&
#1100
0&
#1105
b110110 9
b101 J
1&
#1110
0&
#1115
b110 J
b110111 9
1&
#1120
0&
#1125
b111000 9
b111 J
1&
#1130
0&
#1135
b1000 J
b111001 9
1&
#1140
0&
#1145
b111010 9
b1001 J
1&
#1150
0&
#1155
b1010 J
b111011 9
1&
#1160
0&
#1165
b111100 9
b1011 J
1&
#1170
0&
#1175
b1100 J
b111101 9
1&
#1180
0&
#1185
b111110 9
b1101 J
1&
#1190
0&
#1195
b1110 J
b111111 9
1&
#1200
0&
#1205
b1000000 9
b1111 J
1&
#1210
0&
#1215
b10000 J
b1000001 9
1&
#1220
0&
#1225
b1000010 9
b10001 J
1&
#1230
0&
#1235
b10010 J
b1000011 9
1&
#1240
0&
#1245
b1000100 9
b10011 J
1&
#1250
0&
#1255
b10100 J
b1000101 9
1&
#1260
0&
#1265
b1000110 9
b10101 J
1&
#1270
0&
#1275
b10110 J
b1000111 9
1&
#1280
0&
#1285
b1001000 9
b10111 J
1&
#1290
0&
#1295
b11000 J
b1001001 9
1&
#1300
0&
#1305
b1001010 9
b11001 J
1&
#1310
0&
#1315
b11010 J
b1001011 9
1&
#1320
0&
#1325
b1001100 9
b11011 J
1&
#1330
0&
#1335
b11100 J
b1001101 9
1&
#1340
0&
#1345
b1001110 9
b11101 J
1&
#1350
0&
#1355
b11110 J
b1001111 9
1&
#1360
0&
#1365
b1010000 9
b11111 J
1&
#1370
0&
#1375
b100000 J
b1010001 9
1&
#1380
0&
#1385
b1010010 9
b100001 J
1&
#1390
0&
#1395
b100010 J
b1010011 9
1&
#1400
0&
#1405
b1010100 9
b100011 J
1&
#1410
0&
#1415
b100100 J
b1010101 9
1&
#1420
0&
#1425
b1010110 9
b100101 J
1&
#1430
0&
#1435
b100110 J
b1010111 9
1&
#1440
0&
#1445
b1011000 9
b100111 J
1&
#1450
0&
#1455
b101000 J
b1011001 9
1&
#1460
0&
#1465
b1011010 9
b101001 J
1&
#1470
0&
#1475
b101010 J
b1011011 9
1&
#1480
0&
#1485
b1011100 9
b101011 J
1&
#1490
0&
#1495
b101100 J
b1011101 9
1&
#1500
0&
#1505
b1011110 9
b101101 J
1&
#1510
0&
#1515
b101110 J
b1011111 9
1&
#1520
0&
#1525
b1100000 9
b101111 J
1&
#1530
0&
#1535
b110000 J
b1100001 9
1&
#1540
0&
#1545
b1100010 9
b110001 J
1&
#1550
0&
#1555
b110010 J
b1100011 9
1&
#1560
0&
#1565
b1100100 9
b110011 J
1&
#1570
0&
#1575
b110100 J
b1100101 9
1&
#1580
0&
#1585
b1100110 9
b110101 J
1&
#1590
0&
#1595
b110110 J
b1100111 9
1&
#1600
0&
#1605
b1 8
b0 9
b110111 J
1&
#1610
0&
#1615
b111000 J
b1 9
1&
#1620
0&
#1625
b10 9
b111001 J
1&
#1630
0&
#1635
b111010 J
b11 9
1&
#1640
0&
#1645
b100 9
b111011 J
1&
#1650
0&
#1655
b111100 J
b101 9
1&
#1660
0&
#1665
b110 9
b111101 J
1&
#1670
0&
#1675
b111110 J
b111 9
1&
#1680
0&
#1685
b1000 9
b111111 J
1&
#1690
0&
#1695
b1000000 J
b1001 9
1&
#1700
0&
#1705
b1010 9
b1000001 J
1&
#1710
0&
#1715
b1000010 J
b1011 9
1&
#1720
0&
#1725
b1100 9
b1000011 J
1&
#1730
0&
#1735
b1000100 J
b1101 9
1&
#1740
0&
#1745
b1110 9
b1000101 J
1&
#1750
0&
#1755
b1000110 J
b1111 9
1&
#1760
0&
#1765
b10000 9
b1000111 J
1&
#1770
0&
#1775
b1001000 J
b10001 9
1&
#1780
0&
#1785
b10010 9
b1001001 J
1&
#1790
0&
#1795
b1001010 J
b10011 9
1&
#1800
0&
#1805
b10100 9
b1001011 J
1&
#1810
0&
#1815
b1001100 J
b10101 9
1&
#1820
0&
#1825
b10110 9
b1001101 J
1&
#1830
0&
#1835
b1001110 J
b10111 9
1&
#1840
0&
#1845
b11000 9
b1001111 J
1&
#1850
0&
#1855
b1010000 J
b11001 9
1&
#1860
0&
#1865
b11010 9
b1010001 J
1&
#1870
0&
#1875
b1010010 J
b11011 9
1&
#1880
0&
#1885
b11100 9
b1010011 J
1&
#1890
0&
#1895
b1010100 J
b11101 9
1&
#1900
0&
#1905
b11110 9
b1010101 J
1&
#1910
0&
#1915
b1010110 J
b11111 9
1&
#1920
0&
#1925
b100000 9
b1010111 J
1&
#1930
0&
#1935
b1011000 J
b100001 9
1&
#1940
0&
#1945
b100010 9
b1011001 J
1&
#1950
0&
#1955
b1011010 J
b100011 9
1&
#1960
0&
#1965
b100100 9
b1011011 J
1&
#1970
0&
#1975
b1011100 J
b100101 9
1&
#1980
0&
#1985
b100110 9
b1011101 J
1&
#1990
0&
#1995
b1011110 J
b100111 9
1&
#2000
0&
#2005
b101000 9
b1011111 J
1&
#2010
0&
#2015
b1100000 J
b101001 9
1&
#2020
0&
#2025
b101010 9
b1100001 J
1&
#2030
0&
#2035
b1100010 J
b101011 9
1&
#2040
0&
#2045
b101100 9
b1100011 J
1&
#2050
0&
#2055
b1100100 J
b101101 9
1&
#2060
0&
#2065
b101110 9
b1100101 J
1&
#2070
0&
#2075
b1100110 J
b101111 9
1&
#2080
0&
#2085
b110000 9
b1100111 J
1&
#2090
0&
#2095
b1 I
b0 J
b110001 9
1&
#2100
0&
#2105
b110010 9
b1 J
1&
#2110
0&
#2115
b10 J
b110011 9
1&
#2120
0&
#2125
b110100 9
b11 J
1&
#2130
0&
#2135
b100 J
b110101 9
1&
#2140
0&
#2145
b110110 9
b101 J
1&
#2150
0&
#2155
b110 J
b110111 9
1&
#2160
0&
#2165
b111000 9
b111 J
1&
#2170
0&
#2175
b1000 J
b111001 9
1&
#2180
0&
#2185
b111010 9
b1001 J
1&
#2190
0&
#2195
b1010 J
b111011 9
1&
#2200
0&
#2205
b111100 9
b1011 J
1&
#2210
0&
#2215
b1100 J
b111101 9
1&
#2220
0&
#2225
b111110 9
b1101 J
1&
#2230
0&
#2235
b1110 J
b111111 9
1&
#2240
0&
#2245
b1000000 9
b1111 J
1&
#2250
0&
#2255
b10000 J
b1000001 9
1&
#2260
0&
#2265
b1000010 9
b10001 J
1&
#2270
0&
#2275
b10010 J
b1000011 9
1&
#2280
0&
#2285
b1000100 9
b10011 J
1&
#2290
0&
#2295
b10100 J
b1000101 9
1&
#2300
0&
#2305
b1000110 9
b10101 J
1&
#2310
0&
#2315
b10110 J
b1000111 9
1&
#2320
0&
#2325
b1001000 9
b10111 J
1&
#2330
0&
#2335
b11000 J
b1001001 9
1&
#2340
0&
#2345
b1001010 9
b11001 J
1&
#2350
0&
#2355
b11010 J
b1001011 9
1&
#2360
0&
#2365
b1001100 9
b11011 J
1&
#2370
0&
#2375
b11100 J
b1001101 9
1&
#2380
0&
#2385
b1001110 9
b11101 J
1&
#2390
0&
#2395
b11110 J
b1001111 9
1&
#2400
0&
#2405
b1010000 9
b11111 J
1&
#2410
0&
#2415
b100000 J
b1010001 9
1&
#2420
0&
#2425
b1010010 9
b100001 J
1&
#2430
0&
#2435
b100010 J
b1010011 9
1&
#2440
0&
#2445
b1010100 9
b100011 J
1&
#2450
0&
#2455
b100100 J
b1010101 9
1&
#2460
0&
#2465
b1010110 9
b100101 J
1&
#2470
0&
#2475
b100110 J
b1010111 9
1&
#2480
0&
#2485
b1011000 9
b100111 J
1&
#2490
0&
#2495
b101000 J
b1011001 9
1&
#2500
0&
#2505
b1011010 9
b101001 J
1&
#2510
0&
#2515
b101010 J
b1011011 9
1&
#2520
0&
#2525
b1011100 9
b101011 J
1&
#2530
0&
#2535
b101100 J
b1011101 9
1&
#2540
0&
#2545
b1011110 9
b101101 J
1&
#2550
0&
#2555
b101110 J
b1011111 9
1&
#2560
0&
#2565
b1100000 9
b101111 J
1&
#2570
0&
#2575
b110000 J
b1100001 9
1&
#2580
0&
#2585
b1100010 9
b110001 J
1&
#2590
0&
#2595
b110010 J
b1100011 9
1&
#2600
0&
#2605
b1100100 9
b110011 J
1&
#2610
0&
#2615
b110100 J
b1100101 9
1&
#2620
0&
#2625
b1100110 9
b110101 J
1&
#2630
0&
#2635
b110110 J
b1100111 9
1&
#2640
0&
#2645
b10 8
b0 9
b110111 J
1&
#2650
0&
#2655
b111000 J
b1 9
1&
#2660
0&
#2665
b10 9
b111001 J
1&
#2670
0&
#2675
b111010 J
b11 9
1&
#2680
0&
#2685
b100 9
b111011 J
1&
#2690
0&
#2695
b111100 J
b101 9
1&
#2700
0&
#2705
b110 9
b111101 J
1&
#2710
0&
#2715
b111110 J
b111 9
1&
#2720
0&
#2725
b1000 9
b111111 J
1&
#2730
0&
#2735
b1000000 J
b1001 9
1&
#2740
0&
#2745
b1010 9
b1000001 J
1&
#2750
0&
#2755
b1000010 J
b1011 9
1&
#2760
0&
#2765
b1100 9
b1000011 J
1&
#2770
0&
#2775
b1000100 J
b1101 9
1&
#2780
0&
#2785
b1110 9
b1000101 J
1&
#2790
0&
#2795
b1000110 J
b1111 9
1&
#2800
0&
#2805
b10000 9
b1000111 J
1&
#2810
0&
#2815
b1001000 J
b10001 9
1&
#2820
0&
#2825
b10010 9
b1001001 J
1&
#2830
0&
#2835
b1001010 J
b10011 9
1&
#2840
0&
#2845
b10100 9
b1001011 J
1&
#2850
0&
#2855
b1001100 J
b10101 9
1&
#2860
0&
#2865
b10110 9
b1001101 J
1&
#2870
0&
#2875
b1001110 J
b10111 9
1&
#2880
0&
#2885
b11000 9
b1001111 J
1&
#2890
0&
#2895
b1010000 J
b11001 9
1&
#2900
0&
#2905
b11010 9
b1010001 J
1&
#2910
0&
#2915
b1010010 J
b11011 9
1&
#2920
0&
#2925
b11100 9
b1010011 J
1&
#2930
0&
#2935
b1010100 J
b11101 9
1&
#2940
0&
#2945
b11110 9
b1010101 J
1&
#2950
0&
#2955
b1010110 J
b11111 9
1&
#2960
0&
#2965
b100000 9
b1010111 J
1&
#2970
0&
#2975
b1011000 J
b100001 9
1&
#2980
0&
#2985
b100010 9
b1011001 J
1&
#2990
0&
#2995
b1011010 J
b100011 9
1&
#3000
0&
#3005
b100100 9
b1011011 J
1&
#3010
0&
#3015
b1011100 J
b100101 9
1&
#3020
0&
#3025
b100110 9
b1011101 J
1&
#3030
0&
#3035
b1011110 J
b100111 9
1&
#3040
0&
#3045
b101000 9
b1011111 J
1&
#3050
0&
#3055
b1100000 J
b101001 9
1&
#3060
0&
#3065
b101010 9
b1100001 J
1&
#3070
0&
#3075
b1100010 J
b101011 9
1&
#3080
0&
#3085
b101100 9
b1100011 J
1&
#3090
0&
#3095
b1100100 J
b101101 9
1&
#3100
0&
#3105
b101110 9
b1100101 J
1&
#3110
0&
#3115
b1100110 J
b101111 9
1&
#3120
0&
#3125
b110000 9
b1100111 J
1&
#3130
0&
#3135
b10 I
b0 J
b110001 9
1&
#3140
0&
#3145
b110010 9
b1 J
1"
1+
1&
#3150
0&
#3155
b10 J
b110011 9
1&
#3160
0&
#3165
b110100 9
b11 J
1&
#3170
0&
#3175
b100 J
b100 :
b110101 9
1&
#3180
0&
#3185
b110110 9
b101 J
1&
#3190
0&
#3195
b110 J
b110111 9
1&
#3200
0&
#3205
b111000 9
b111 J
1&
#3210
0&
#3215
b1000 J
b111001 9
1&
#3220
0&
#3225
b111010 9
b1001 J
1&
#3230
0&
#3235
b1010 J
b111011 9
1&
#3240
0&
#3245
b111100 9
b1011 J
1&
#3250
0&
#3255
b1100 J
b111101 9
1&
#3260
0&
#3265
b111110 9
b1101 J
1&
#3270
0&
#3275
b1110 J
b111111 9
1&
#3280
0&
#3285
b1000000 9
b1111 J
1&
#3290
0&
#3295
b10000 J
b1000001 9
1&
#3300
0&
#3305
b1000010 9
b10001 J
1&
#3310
0&
#3315
b10010 J
b1000011 9
1&
#3320
0&
#3325
b1000100 9
b10011 J
1&
#3330
0&
#3335
b10100 J
b1000101 9
1&
#3340
0&
#3345
b1000110 9
b10101 J
1&
#3350
0&
#3355
b10110 J
b1000111 9
1&
#3360
0&
#3365
b1001000 9
b10111 J
1&
#3370
0&
#3375
b11000 J
b1001001 9
1&
#3380
0&
#3385
b1001010 9
b11001 J
1&
#3390
0&
#3395
b11010 J
b1001011 9
1&
#3400
0&
#3405
b1001100 9
b11011 J
1&
#3410
0&
#3415
b11100 J
b1001101 9
1&
#3420
0&
#3425
b1001110 9
b11101 J
1&
#3430
0&
#3435
b11110 J
b1001111 9
1&
#3440
0&
#3445
b1010000 9
b11111 J
1&
#3450
0&
#3455
b100000 J
b1010001 9
1&
#3460
0&
#3465
b1010010 9
b100001 J
1&
#3470
0&
#3475
b100010 J
b1010011 9
1&
#3480
0&
#3485
b1010100 9
b100011 J
1&
#3490
0&
#3495
b100100 J
b1010101 9
1&
#3500
0&
#3505
b1010110 9
b100101 J
1&
#3510
0&
#3515
b100110 J
b1010111 9
1&
#3520
0&
#3525
b1011000 9
b100111 J
1&
#3530
0&
#3535
b101000 J
b1011001 9
1&
#3540
0&
#3545
b1011010 9
b101001 J
1&
#3550
0&
#3555
b101010 J
b1011011 9
1&
#3560
0&
#3565
b1011100 9
b101011 J
1&
#3570
0&
#3575
b101100 J
b1011101 9
1&
#3580
0&
#3585
b1011110 9
b101101 J
1&
#3590
0&
#3595
b101110 J
b1011111 9
1&
#3600
0&
#3605
b1100000 9
b101111 J
1&
#3610
0&
#3615
b110000 J
b1100001 9
1&
#3620
0&
#3625
b1100010 9
b110001 J
1&
#3630
0&
#3635
b110010 J
b1100011 9
1&
#3640
0&
#3645
b1100100 9
b110011 J
1&
#3650
0&
#3655
b110100 J
b1100101 9
1&
#3660
0&
#3665
b1100110 9
b110101 J
1&
#3670
0&
#3675
b110110 J
b1100111 9
1&
#3680
0&
#3685
b11 8
b0 9
b110111 J
1&
#3690
0&
#3695
b111000 J
b1 9
1&
#3700
0&
#3705
b10 9
b111001 J
1&
#3710
0&
#3715
b111010 J
b11 9
1&
#3720
0&
#3725
b100 9
b111011 J
1&
#3730
0&
#3735
b111100 J
b101 9
1&
#3740
0&
#3745
b110 9
b111101 J
1&
#3750
0&
#3755
b111110 J
b111 9
1&
#3760
0&
#3765
b1000 9
b111111 J
1&
#3770
0&
#3775
b1000000 J
b1001 9
1&
#3780
0&
#3785
b1010 9
b1000001 J
1&
#3790
0&
#3795
b1000010 J
b1011 9
1&
#3800
0&
#3805
b1100 9
b1000011 J
1&
#3810
0&
#3815
b1000100 J
b1101 9
1&
#3820
0&
#3825
b1110 9
b1000101 J
1&
#3830
0&
#3835
b1000110 J
b1111 9
1&
#3840
0&
#3845
b10000 9
b1000111 J
1&
#3850
0&
#3855
b1001000 J
b10001 9
1&
#3860
0&
#3865
b10010 9
b1001001 J
1&
#3870
0&
#3875
b1001010 J
b10011 9
1&
#3880
0&
#3885
b10100 9
b1001011 J
1&
#3890
0&
#3895
b1001100 J
b10101 9
1&
#3900
0&
#3905
b10110 9
b1001101 J
1&
#3910
0&
#3915
b1001110 J
b10111 9
1&
#3920
0&
#3925
b11000 9
b1001111 J
1&
#3930
0&
#3935
b1010000 J
b11001 9
1&
#3940
0&
#3945
b11010 9
b1010001 J
1&
#3950
0&
#3955
b1010010 J
b11011 9
1&
#3960
0&
#3965
b11100 9
b1010011 J
1&
#3970
0&
#3975
b1010100 J
b11101 9
1&
#3980
0&
#3985
b11110 9
b1010101 J
1&
#3990
0&
#3995
b1010110 J
b11111 9
1&
#4000
0&
#4005
b100000 9
b1010111 J
1&
#4010
0&
#4015
b1011000 J
b100001 9
1&
#4020
0&
#4025
b100010 9
b1011001 J
1&
#4030
0&
#4035
b1011010 J
b100011 9
1&
#4040
0&
#4045
b100100 9
b1011011 J
1&
#4050
0&
#4055
b1011100 J
b100101 9
1&
#4060
0&
#4065
b100110 9
b1011101 J
1&
#4070
0&
#4075
b1011110 J
b100111 9
1&
#4080
0&
#4085
b101000 9
b1011111 J
1&
#4090
0&
#4095
b1100000 J
b101001 9
1&
#4100
0&
#4105
b101010 9
b1100001 J
1&
#4110
0&
#4115
b1100010 J
b101011 9
1&
#4120
0&
#4125
b101100 9
b1100011 J
1&
#4130
0&
#4135
b1100100 J
b101101 9
1&
#4140
0&
#4145
b101110 9
b1100101 J
1&
#4150
0&
#4155
b1100110 J
b101111 9
1&
#4160
0&
#4165
b110000 9
b1100111 J
1&
#4170
0&
#4175
b11 I
b0 J
b110001 9
1&
#4180
0&
#4185
b110010 9
b1 J
1&
#4190
0&
#4195
b10 J
b110011 9
1&
#4200
0&
#4205
b110100 9
b11 J
1&
#4210
0&
#4215
b100 J
b1100 :
b110101 9
1&
#4220
0&
#4225
b110110 9
b101 J
1&
#4230
0&
#4235
b110 J
b110111 9
1&
#4240
0&
#4245
b111000 9
b111 J
1&
#4250
0&
#4255
b1000 J
b111001 9
1&
#4260
0&
#4265
b111010 9
b1001 J
1&
#4270
0&
#4275
b1010 J
b111011 9
1&
#4280
0&
#4285
b111100 9
b1011 J
1&
#4290
0&
#4295
b1100 J
b111101 9
1&
#4300
0&
#4305
b111110 9
b1101 J
1&
#4310
0&
#4315
b1110 J
b111111 9
1&
#4320
0&
#4325
b1000000 9
b1111 J
1&
#4330
0&
#4335
b10000 J
b1000001 9
1&
#4340
0&
#4345
b1000010 9
b10001 J
1&
#4350
0&
#4355
b10010 J
b1000011 9
1&
#4360
0&
#4365
b1000100 9
b10011 J
1&
#4370
0&
#4375
b10100 J
b1000101 9
1&
#4380
0&
#4385
b1000110 9
b10101 J
1&
#4390
0&
#4395
b10110 J
b1000111 9
1&
#4400
0&
#4405
b1001000 9
b10111 J
1&
#4410
0&
#4415
b11000 J
b1001001 9
1&
#4420
0&
#4425
b1001010 9
b11001 J
1&
#4430
0&
#4435
b11010 J
b1001011 9
1&
#4440
0&
#4445
b1001100 9
b11011 J
1&
#4450
0&
#4455
b11100 J
b1001101 9
1&
#4460
0&
#4465
b1001110 9
b11101 J
1&
#4470
0&
#4475
b11110 J
b1001111 9
1&
#4480
0&
#4485
b1010000 9
b11111 J
1&
#4490
0&
#4495
b100000 J
b1010001 9
1&
#4500
0&
#4505
b1010010 9
b100001 J
1&
#4510
0&
#4515
b100010 J
b1010011 9
1&
#4520
0&
#4525
b1010100 9
b100011 J
1&
#4530
0&
#4535
b100100 J
b1010101 9
1&
#4540
0&
#4545
b1010110 9
b100101 J
1&
#4550
0&
#4555
b100110 J
b1010111 9
1&
#4560
0&
#4565
b1011000 9
b100111 J
1&
#4570
0&
#4575
b101000 J
b1011001 9
1&
#4580
0&
#4585
b1011010 9
b101001 J
1&
#4590
0&
#4595
b101010 J
b1011011 9
1&
#4600
0&
#4605
b1011100 9
b101011 J
1&
#4610
0&
#4615
b101100 J
b1011101 9
1&
#4620
0&
#4625
b1011110 9
b101101 J
1&
#4630
0&
#4635
b101110 J
b1011111 9
1&
#4640
0&
#4645
b1100000 9
b101111 J
1&
#4650
0&
#4655
b110000 J
b1100001 9
1&
#4660
0&
#4665
b1100010 9
b110001 J
1&
#4670
0&
#4675
b110010 J
b1100011 9
1&
#4680
0&
#4685
b1100100 9
b110011 J
1&
#4690
0&
#4695
b110100 J
b1100101 9
1&
#4700
0&
#4705
b1100110 9
b110101 J
1&
#4710
0&
#4715
b110110 J
b1100111 9
1&
#4720
0&
#4725
b100 8
b0 9
b110111 J
1&
#4730
0&
#4735
b111000 J
b1 9
1&
#4740
0&
#4745
b10 9
b111001 J
1&
#4750
0&
#4755
b111010 J
b11 9
1&
#4760
0&
#4765
b100 9
b111011 J
1&
#4770
0&
#4775
b111100 J
b101 9
1&
#4780
0&
#4785
b110 9
b111101 J
1&
#4790
0&
#4795
b111110 J
b111 9
1&
#4800
0&
#4805
b1000 9
b111111 J
1&
#4810
0&
#4815
b1000000 J
b1001 9
1&
#4820
0&
#4825
b1010 9
b1000001 J
1&
#4830
0&
#4835
b1000010 J
b1011 9
1&
#4840
0&
#4845
b1100 9
b1000011 J
1&
#4850
0&
#4855
b1000100 J
b1101 9
1&
#4860
0&
#4865
b1110 9
b1000101 J
1&
#4870
0&
#4875
b1000110 J
b1111 9
1&
#4880
0&
#4885
b10000 9
b1000111 J
1&
#4890
0&
#4895
b1001000 J
b10001 9
1&
#4900
0&
#4905
b10010 9
b1001001 J
1&
#4910
0&
#4915
b1001010 J
b10011 9
1&
#4920
0&
#4925
b10100 9
b1001011 J
1&
#4930
0&
#4935
b1001100 J
b10101 9
1&
#4940
0&
#4945
b10110 9
b1001101 J
1&
#4950
0&
#4955
b1001110 J
b10111 9
1&
#4960
0&
#4965
b11000 9
b1001111 J
1&
#4970
0&
#4975
b1010000 J
b11001 9
1&
#4980
0&
#4985
b11010 9
b1010001 J
1&
#4990
0&
#4995
b1010010 J
b11011 9
1&
#5000
0&
#5005
b11100 9
b1010011 J
1&
#5010
0&
#5015
b1010100 J
b11101 9
1&
#5020
0&
#5025
b11110 9
b1010101 J
1&
#5030
0&
#5035
b1010110 J
b11111 9
1&
#5040
0&
#5045
b100000 9
b1010111 J
1&
#5050
0&
#5055
b1011000 J
b100001 9
1&
#5060
0&
#5065
b100010 9
b1011001 J
1&
#5070
0&
#5075
b1011010 J
b100011 9
1&
#5080
0&
#5085
b100100 9
b1011011 J
1&
#5090
0&
#5095
b1011100 J
b100101 9
1&
#5100
0&
#5105
b100110 9
b1011101 J
1&
#5110
0&
#5115
b1011110 J
b100111 9
1&
#5120
0&
#5125
b101000 9
b1011111 J
1&
#5130
0&
#5135
b1100000 J
b101001 9
1&
#5140
0&
#5145
b101010 9
b1100001 J
1&
#5150
0&
#5155
b1100010 J
b101011 9
1&
#5160
0&
