Gate_Verilog/spi/dump.vcd
$date
	Mon Dec 08 00:52:31 2025
$end
$version
	Icarus Verilog
$end
$timescale
	1s
$end
$scope module spi_tb $end
$var wire 1 ! ss $end
$var wire 1 " sck $end
$var wire 1 # mosi $end
$var wire 1 $ done $end
$var wire 8 % data_out [7:0] $end
$var reg 1 & clk $end
$var reg 8 ' data_in [7:0] $end
$var reg 1 ( miso $end
$var reg 1 ) rst $end
$var reg 1 * start $end
$scope module uut $end
$var wire 1 & clk $end
$var wire 8 + data_in [7:0] $end
$var wire 1 ( miso $end
$var wire 1 ) rst $end
$var wire 1 * start $end
$var parameter 32 , clk_div $end
$var parameter 2 - done_bit $end
$var parameter 2 . idle $end
$var parameter 2 / load $end
$var parameter 2 0 transfer $end
$var reg 3 1 bit_count [2:0] $end
$var reg 4 2 clk_div_count [3:0] $end
$var reg 8 3 data_out [7:0] $end
$var reg 1 $ done $end
$var reg 1 # mosi $end
$var reg 1 " sck $end
$var reg 8 4 shift_reg [7:0] $end
$var reg 1 ! ss $end
$var reg 2 5 state [1:0] $end
$upscope $end
$upscope $end
$enddefinitions $end
$comment Show the parameter values. $end
$dumpall
b10 0
b1 /
b0 .
b11 -
b100 ,
$end
#0
$dumpvars
b0 5
b0 4
b0 3
b0 2
b0 1
b10101111 +
0*
0)
0(
b10101111 '
0&
b0 %
0$
0#
0"
1!
$end
#5
1&
#10
0&
#15
1&
#20
0&
1)
#25
1&
#30
0&
#35
1&
#40
0&
1*
#45
b1 5
1&
#50
0&
0*
#55
b10 5
b111 1
b10101111 4
0!
1&
#60
0&
#65
b1 2
1&
1(
#70
0&
#75
1#
1"
b10 2
1&
#80
0&
#85
b11 2
1&
#90
0&
#95
b110 1
b10000000 %
b10000000 3
0"
b0 2
1&
#100
0&
#105
b1 2
1&
0(
#110
0&
#115
0#
1"
b10 2
1&
#120
0&
#125
b11 2
1&
#130
0&
#135
b101 1
0"
b0 2
1&
#140
0&
#145
b1 2
1&
1(
#150
0&
#155
1#
1"
b10 2
1&
#160
0&
#165
b11 2
1&
#170
0&
#175
b100 1
b10100000 %
b10100000 3
0"
b0 2
1&
#180
0&
#185
b1 2
1&
0(
#190
0&
#195
0#
1"
b10 2
1&
#200
0&
#205
b11 2
1&
#210
0&
#215
b11 1
0"
b0 2
1&
#220
0&
#225
b1 2
1&
1(
#230
0&
#235
1#
1"
b10 2
1&
#240
0&
#245
b11 2
1&
#250
0&
#255
b10 1
b10101000 %
b10101000 3
0"
b0 2
1&
#260
0&
#265
b1 2
1&
0(
#270
0&
#275
1"
b10 2
1&
#280
0&
#285
b11 2
1&
#290
0&
#295
b1 1
0"
b0 2
1&
#300
0&
#305
b1 2
1&
1(
#310
0&
#315
1"
b10 2
1&
#320
0&
#325
b11 2
1&
#330
0&
#335
b0 1
b10101010 %
b10101010 3
0"
b0 2
1&
#340
0&
#345
b1 2
1&
0(
#350
0&
#355
1"
b10 2
1&
#360
0&
#365
b11 2
1&
#370
0&
#375
b11 5
0"
b0 2
1&
#380
0&
#385
b0 5
1$
1!
1&
#390
0&
#395
0$
1&
